…
### `get_overview`
Wraps around `get_tables`/`get_variables` and retrieves all available tables and 
variables (`get_overview`) or resources and fields (`get_overview2`).

``` r
swissparl::get_overview(silent = T)
#>
#> # A tibble: 757 × 2
#>    table variable                
#>    <chr> <chr>                   
#>  1 Bill  BillNumber              
#>  2 Bill  BillType                
#>  3 Bill  BillTypeName            
#>  4 Bill  BusinessNumber          
#>  5 Bill  BusinessShortNumber     
#>  6 Bill  BusinessStatus          
#>  7 Bill  BusinessStatusDate      
#>  8 Bill  BusinessStatusText      
#>  9 Bill  BusinessType            
#> 10 Bill  BusinessTypeAbbreviation
#> # ℹ 747 more rows
```

``` r
swissparl::get_overview2(silent = T)
#>
#> # A tibble: 560 × 2
#>    table         variable                   
#>    <chr>         <chr>                      
#>  1 access_badges beneficiary_group          
#>  2 access_badges beneficiary_person_fullname
#>  3 access_badges beneficiary_person_id      
#>  4 access_badges body_id                    
#>  5 access_badges body_key                   
#>  6 access_badges created_at                 
#>  7 access_badges external_id                
#>  8 access_badges id                         
#>  9 access_badges latest                     
#> 10 access_badges links                      
#> # ℹ 550 more rows
```
…
## Main functions `get_data`

The main data retrieval functions of the package are `get_data` and `get_data2`.  
They can be used to download entire datasets or selected rows from any available
OData table (`get_data`) or OpenParlData resource (`get_data2`).

``` r
swissparl::get_data("Person", Language = "DE")
#>
#> # A tibble: 3,712 × 21
#>       ID Language PersonNumber PersonIdCode Title TitleText           LastName  
#>    <int> <chr>           <int>        <int> <int> <chr>               <chr>     
#>  1     1 DE                  1         2200    NA <NA>                Aguet     
#>  2     2 DE                  2         2002    NA <NA>                Allenspach
#>  3     6 DE                  6         2004     9 dipl. Bauing. HTL   Aregger   
#>  4     7 DE                  7         2005    NA <NA>                Aubry     
#>  5     8 DE                  8         2008    NA <NA>                Bär       
#>  6     9 DE                  9         2268    10 dipl. Ing. Agr. ETH Baumann   
#>  7    10 DE                 10         2269     6 Dr. iur.            Baumberger
#>  8    11 DE                 11         2011    12 lic. phil. I        Bäumlin   
#>  9    12 DE                 12         2335   115 lic. iur.           Beerli    
#> 10    13 DE                 13         2202     3 lic. en droit       Béguin    
#> # ℹ 3,702 more rows
#> # ℹ 14 more variables: GenderAsString <chr>, DateOfBirth <date>,
#> #   DateOfDeath <date>, MaritalStatus <int>, MaritalStatusText <chr>,
#> #   PlaceOfBirthCity <chr>, PlaceOfBirthCanton <chr>, Modified <dttm>,
#> #   FirstName <chr>, OfficialName <chr>, MilitaryRank <int>,
#> #   MilitaryRankText <chr>, NativeLanguage <chr>, NumberOfChildren <int>
```

``` r
swissparl::get_data2("persons")
#> 
#> # A tibble: 25,004 × 62
#>       id url_api      body_key external_id external_alternative…¹ title fullname
#>    <int> <chr>        <chr>    <chr>       <chr>                  <chr> <chr>   
#>  1 24862 https://api… 1024     10000003    <NA>                   <NA>  Andreas…
#>  2 24863 https://api… 1024     10000004    <NA>                   <NA>  Annemar…
#>  3 24864 https://api… 1024     10000005    <NA>                   <NA>  Armin B…
#>  4 24865 https://api… 1024     10000007    <NA>                   <NA>  Christi…
#>  5 24866 https://api… 1024     10000008    <NA>                   <NA>  Christi…
#>  6 24867 https://api… 1024     10000009    <NA>                   <NA>  Christo…
#>  7 24868 https://api… 1024     10000011    <NA>                   <NA>  Daniel …
#>  8 24869 https://api… 1024     10000013    <NA>                   <NA>  Edi Sch…
#>  9 24870 https://api… 1024     10000014    <NA>                   <NA>  Ernst W…
#> 10 24871 https://api… 1024     10000015    <NA>                   <NA>  Eugen B…
#> # ℹ 24,994 more rows
#> # ℹ abbreviated name: ¹​external_alternative_id
#> # ℹ 55 more variables: firstname <chr>, lastname <chr>, body_id <int>,
#> #   party_de <chr>, party_fr <chr>, party_it <chr>, party_external_id <chr>,
#> #   party_harmonized_de <chr>, party_harmonized_fr <chr>,
#> #   party_harmonized_it <chr>, party_harmonized_en <chr>,
#> #   party_harmonized_wikidata_id <chr>, website_parliament_url_de <chr>, …
```
### Subsetting with `...`

Both `get_data` and `get_data2` use `...` (ellipsis) to pass filter arguments to 
the respective interface, allowing flexible subsetting of tables or resources.

For example, the function can be used to download all speech transcripts of a given councillor (Odata):

``` r
swissparl::get_data(
    table = "Transcript", 
    SpeakerLastName = "Blocher", 
    Language = "DE"
    )
#> 
#> # A tibble: 1,380 x 34
#>    ID    Language IdSubject VoteId PersonNumber  Type Text 
#>    <chr> <chr>    <chr>     <lgl>         <int> <int> <chr>
#>  1 63    DE       8         NA               21     1 "<pd~
#>  2 617   DE       113       NA               21     1 "<pd~
#>  3 619   DE       113       NA               21     1 "<pd~
#>  4 639   DE       113       NA               21     1 "<pd~
#>  5 1506  DE       264       NA               21     1 "<pd~
#>  6 1519  DE       264       NA               21     1 "<pd~
#>  7 2517  DE       376       NA               21     1 "<pd~
#>  8 2565  DE       385       NA               21     1 "<pd~
#>  9 2567  DE       385       NA               21     1 "<pd~
#> 10 4254  DE       721       NA               21     1 "<pd~
#> # ... with 1,370 more rows, and 27 more variables:
#> #   MeetingCouncilAbbreviation <chr>, MeetingDate <chr>,
#> #   MeetingVerbalixOid <int>, IdSession <chr>, SpeakerFirstName <chr>,
#> #   SpeakerLastName <chr>, SpeakerFullName <chr>, SpeakerFunction <chr>,
#> #   CouncilId <int>, CouncilName <chr>, CantonId <int>, CantonName <chr>,
#> #   CantonAbbreviation <chr>, ParlGroupName <chr>,
#> #   ParlGroupAbbreviation <chr>, SortOrder <int>, Start <dttm>,
#> #   End <dttm>, Function <chr>, DisplaySpeaker <lgl>,
#> #   LanguageOfText <chr>, Modified <dttm>, StartTimeWithTimezone <dttm>,
#> #   EndTimeWithTimezone <dttm>, VoteBusinessNumber <lgl>,
#> #   VoteBusinessShortNumber <lgl>, VoteBusinessTitle <lgl>
```

Or all affairs of type "Motion" for a given canton (OpenParlData):

``` r
swissparl::get_data2(
  table = "affairs", 
  body_key = "AG",
  type_harmonized_de = "Motion"
  )
#>
#> # A tibble: 698 × 48
#>        id url_api     body_key external_id external_alternative…¹ number body_id
#>     <int> <chr>       <chr>    <chr>       <lgl>                  <chr>    <int>
#>  1 289559 https://ap… AG       6792558     NA                     26.26      250
#>  2 289557 https://ap… AG       6792540     NA                     26.25      250
#>  3 287030 https://ap… AG       6772058     NA                     25.375     250
#>  4 287031 https://ap… AG       6772063     NA                     25.374     250
#>  5 287037 https://ap… AG       6772335     NA                     25.381     250
#>  6 287036 https://ap… AG       6772294     NA                     25.380     250
#>  7 287035 https://ap… AG       6772243     NA                     25.379     250
#>  8 287040 https://ap… AG       6772662     NA                     25.384     250
#>  9 285328 https://ap… AG       6748185     NA                     25.358     250
#> 10 284925 https://ap… AG       6734978     NA                     25.340     250
#> # ℹ 688 more rows
#> # ℹ abbreviated name: ¹​external_alternative_id
#> # ℹ 41 more variables: title_de <chr>, title_fr <lgl>, title_it <lgl>,
#> #   title_rm <lgl>, title_long_de <chr>, title_long_fr <lgl>,
#> #   title_long_it <lgl>, title_long_rm <lgl>, type_name_de <chr>,
#> #   type_name_fr <lgl>, type_name_it <lgl>, type_name_rm <lgl>,
#> #   type_external_id <lgl>, type_harmonized_de <chr>, …
```

### Periods
Or it can also be used to fetch detailed information on all political businesses 
submitted during a **given period**:

``` r
swissparl::get_data(
  table = "Business", 
  SubmissionDate = c(">2025-12-31", "<2026-03-01"),
  Language = "DE"
)
#> 
#> # A tibble: 60 × 43
#>          ID Language BusinessShortNumber BusinessType BusinessTypeName        
#>       <int> <chr>    <chr>                      <int> <chr>                   
#>  1 20250095 DE       25.095                         1 Geschäft des Bundesrates
#>  2 20260008 DE       26.008                         1 Geschäft des Bundesrates
#>  3 20260018 DE       26.018                         1 Geschäft des Bundesrates
#>  4 20260019 DE       26.019                         2 Geschäft des Parlaments 
#>  5 20260020 DE       26.020                         2 Geschäft des Parlaments 
#>  6 20260021 DE       26.021                         1 Geschäft des Bundesrates
#>  7 20260022 DE       26.022                         1 Geschäft des Bundesrates
#>  8 20260024 DE       26.024                         2 Geschäft des Parlaments 
#>  9 20260029 DE       26.029                         1 Geschäft des Bundesrates
#> 10 20260031 DE       26.031                         1 Geschäft des Bundesrates
#> # ℹ 50 more rows
#> # ℹ 38 more variables: BusinessTypeAbbreviation <chr>, Title <chr>,
#> #   Description <chr>, InitialSituation <chr>, Proceedings <chr>,
#> #   DraftText <lgl>, SubmittedText <chr>, ReasonText <chr>,
#> #   DocumentationText <lgl>, MotionText <lgl>,
#> #   FederalCouncilResponseText <chr>, FederalCouncilProposal <int>,
#> #   FederalCouncilProposalText <chr>, FederalCouncilProposalDate <date>, …
```

The equivalent query using the OpenParlData interface is:

``` r
swissparl::get_data2(
  table = "affairs", 
  body_key = "CHE",
  from_begin_date = "2026-01-01",
  to_begin_date = "2026-02-28"
  )
#> 
#> # A tibble: 80 × 48
#>        id url_api     body_key external_id external_alternative…¹ number body_id
#>     <int> <chr>       <chr>    <chr>       <lgl>                  <chr>    <int>
#>  1 295827 https://ap… CHE      20269009    NA                     26.90…      42
#>  2 295826 https://ap… CHE      20269011    NA                     26.90…      42
#>  3 295824 https://ap… CHE      20269013    NA                     26.90…      42
#>  4 295823 https://ap… CHE      20269012    NA                     26.90…      42
#>  5 295822 https://ap… CHE      20269014    NA                     26.90…      42
#>  6 295830 https://ap… CHE      20269004    NA                     26.90…      42
#>  7 295829 https://ap… CHE      20269005    NA                     26.90…      42
#>  8 295834 https://ap… CHE      20263021    NA                     26.30…      42
#>  9 295832 https://ap… CHE      20269002    NA                     26.90…      42
#> 10 295831 https://ap… CHE      20269003    NA                     26.90…      42
#> # ℹ 70 more rows
#> # ℹ abbreviated name: ¹​external_alternative_id
#> # ℹ 41 more variables: title_de <chr>, title_fr <chr>, title_it <chr>,
#> #   title_rm <lgl>, title_long_de <lgl>, title_long_fr <lgl>,
#> #   title_long_it <lgl>, title_long_rm <lgl>, type_name_de <chr>,
#> #   type_name_fr <chr>, type_name_it <chr>, type_name_rm <lgl>,
#> #   type_external_id <chr>, type_harmonized_de <chr>, …
```
…
#### OData: substring matching in a specific field

To a certain extent, it is possible to search for **substring matches in texts**.  
For example, to search for all political businesses that contain *CO2* in the title, enter:

``` r
swissparl::get_data(
  table = "Business", 
  Title = "~CO2", 
  Language = "DE"
  )
#> 
#> # A tibble: 336 × 43
#>          ID Language BusinessShortNumber BusinessType BusinessTypeName          
#>       <int> <chr>    <chr>                      <int> <chr>                     
#>  1 19923245 DE       92.3245                        5 Motion                    
#>  2 19952011 DE       95.2011                       10 Petition                  
#>  3 19953546 DE       95.3546                        5 Motion                    
#>  4 19970030 DE       97.030                         1 Geschäft des Bundesrates  
#>  5 20005227 DE       00.5227                       14 Fragestunde. Frage        
#>  6 20010420 DE       01.420                         4 Parlamentarische Initiati…
#>  7 20010421 DE       01.421                         4 Parlamentarische Initiati…
#>  8 20010422 DE       01.422                         4 Parlamentarische Initiati…
#>  9 20013178 DE       01.3178                        5 Motion                    
#> 10 20013225 DE       01.3225                        8 Interpellation            
#> # ℹ 326 more rows
#> # ℹ 38 more variables: BusinessTypeAbbreviation <chr>, Title <chr>,
#> #   Description <chr>, InitialSituation <chr>, Proceedings <chr>,
#> #   DraftText <lgl>, SubmittedText <chr>, ReasonText <chr>,
#> #   DocumentationText <lgl>, MotionText <lgl>,
#> #   FederalCouncilResponseText <chr>, FederalCouncilProposal <int>,
#> #   FederalCouncilProposalText <chr>, FederalCouncilProposalDate <date>, …
```
…
